2w0z_A_B
2vwf_A_B
1ywo_A_P
4f14_A_B
2j6o_A_C
1ssh_A_B
2p4r_A_T
1uj0_A_B
5qu2_A_D
4wci_A_B
2drm_A_E
2drk_A_B
1sem_A_C
2w10_A_D
2d0n_A_B
2d1x_A_P
3u23_A_B
2df6_A_C
4iim_A_C
1oeb_A_D
1uti_A_D
5n5l_A_B
3jpv_A_B
3cxw_A_B
5mzl_A_B
4jx7_A_B
2c3i_B_A
3bxn_A_C
3vfv_A_C
2dyp_A_C
3vrj_A_C
2fz3_A_C
6p2f_A_C
5vcl_A_P
1b0g_A_C
3vfm_A_C
5vuf_A_C
1jpg_A_C
5u98_A_C
2c7u_A_C
3mrq_A_P
6pbh_A_C
4o2e_A_C
4nny_A_C
3fqu_A_C
5hhn_A_C
3roo_A_E
6gh4_A_P
6q3k_A_P
5y91_A_C
6k7t_A_C
5mzm_A_C
1syv_A_C
1t1x_A_C
4prb_A_C
2av7_A_C
5t6y_A_C
2vlk_A_C
3vxs_A_C
1yn7_A_C
4no5_A_C
5eu5_A_C
1jf1_A_C
5nmh_A_C
3kpn_A_C
3vft_A_C
4pgc_A_C
5ieh_A_C
3mrb_A_P
1xr8_A_C
3ft2_A_P
3h9h_A_C
4gks_A_C
5wlg_A_C
6rpb_A_C
6h6h_A_C
6v2q_A_C
6j2a_A_C
3mrl_A_P
1inq_A_C
3vcl_A_C
3l3d_A_C
1s7x_A_C
5ib2_A_C
3p9l_A_F
1fzj_A_P
4wj5_A_C
6p2c_A_C
2p5w_A_C
4u1m_A_C
5h94_A_C
1s7v_A_C
5t70_A_C
6joz_A_C
1wbz_A_P
6j29_A_C
5t6x_A_C
6mtl_A_C
3mrm_A_P
3gsr_A_P
3bhb_A_C
3lkr_A_C
2axg_A_C
6irl_A_C
1kjv_A_P
3pab_A_F
4wu5_A_C
3ch1_D_F
3rl2_A_C
2x4u_D_F
1xr9_A_C
4zfz_A_C
6gb7_A_K
4nqx_A_M
3lko_A_C
3d18_A_C
2x4p_A_C
6am5_A_C
4hux_A_C
4u1j_A_C
3oxr_A_C
6d2r_A_C
5hgd_A_C
1sys_A_C
3x13_A_C
5j6h_A_F
1jht_A_C
4xxc_A_B
6ei2_A_C
5gsx_A_C
5gjx_A_C
6jtp_A_C
4qrq_A_C
1yn6_A_C
5eo0_A_C
3tie_A_C
5hhq_A_C
5txs_A_C
5wwj_A_E
5eot_A_C
3l3g_A_C
5wmp_A_C
3bzf_A_P
5kd7_A_P
1g7p_A_P
5c0c_A_C
1age_A_C
3c9n_A_C
4prp_A_C
5ind_A_E
1kbg_H_P
4hx1_A_C
2vab_A_P
5ylx_A_C
4f7t_A_C
6o4z_A_C
1zsd_A_C
3v5d_A_C
4z77_A_C
1i4f_A_C
3e6f_A_P
2ypk_A_C
3dx7_A_C
5hga_A_C
4cvz_A_C
4qru_A_C
1a1n_A_C
3mrc_A_P
5eo1_A_C
3vxn_A_C
6j2g_A_C
5grd_A_C
5bs0_A_C
5ddh_A_C
6bxp_A_C
5nq1_A_C
4f7m_A_C
2x70_A_C
3wl9_A_C
4uq2_C_E
5meo_A_C
5wxc_A_E
2gtw_A_C
5c0d_A_C
6pyv_A_C
2oi9_A_Q
1t0n_A_P
1eey_A_C
3upr_A_P
1leg_A_P
5eu4_A_C
2bsr_A_C
4nnx_A_C
5v5l_A_E
3hpj_A_C
6pte_A_C
4pge_A_C
4qrt_A_C
6jq2_A_P
3tby_A_C
1k8d_A_P
1s7s_A_C
6avf_H_P
5e8n_A_C
1juf_A_C
1agc_A_C
3fqw_A_C
5iek_A_C
3l3j_A_C
6d29_A_C
6m2j_A_C
2gt9_A_C
4jfq_A_C
5t6w_A_C
4g42_A_C
4pv9_A_E
3myj_A_C
5e00_A_C
1s7w_A_C
1s7t_A_C
4g8i_A_C
3b3i_A_C
3bo8_A_C
1w0w_A_C
3ecb_A_P
1i7r_A_C
4jqx_A_B
5m00_A_P
1s9x_A_C
5e8o_A_C
6opd_A_C
6iex_A_C
5e8p_A_C
3qq4_A_C
4pv8_A_E
6r2l_A_C
5gjy_A_C
6amt_A_C
6jtn_A_C
3fol_A_P
6a6h_A_C
5wmq_A_C
4prd_A_C
3mre_A_P
1xh3_A_C
3o3d_A_C
4f7p_A_C
5ymv_A_C
5n6b_A_C
5xos_A_C
3spv_A_C
5c0g_A_C
3lks_A_C
3p9m_A_F
1x7q_A_C
5jwe_A_P
3cpl_A_E
4g8g_A_C
5wmr_A_C
3ws6_A_E
1k5n_A_C
6bxq_B_A
4qrs_A_C
3bwa_A_C
3d25_A_C
3rwe_A_C
3tbw_A_I
5jwd_A_C
3rew_A_C
3giv_A_C
3ft4_A_P
6o9c_A_C
3vfu_A_C
3mro_A_P
1duy_A_C
3bw9_A_C
3mgt_A_C
3mrr_A_P
3pwn_A_C
1jgd_A_C
4mj5_A_C
3fon_A_P
6vr1_A_P
4jfd_A_C
3bh9_A_C
2zsv_A_E
5npz_A_C
3kyo_A_P
6g9q_A_P
3fqr_A_C
3mrn_A_P
1nan_H_M
4l8b_A_C
5hhp_A_C
5w6a_A_E
4ms8_A_B
1a9e_A_C
1tmc_A_C
6g3j_A_C
3i6l_D_F
4jfo_A_C
3gsx_A_P
1rk1_A_P
6j1v_A_C
6vrn_A_P
3v5h_A_C
4u6y_A_P
5c07_A_C
1kj3_H_P
3kpq_A_C
3fqt_A_C
3gsv_A_P
5eu3_A_C
5grg_A_C
5xmf_A_C
1a1o_A_C
3mrg_A_P
3lv3_A_C
3lkp_A_C
1agd_A_C
3kla_A_C
4zuu_A_C
1tvb_A_C
1uxs_A_C
5vud_A_C
1vgk_A_C
2x4o_D_F
2clr_A_C
3mgo_A_C
4no2_A_C
4lnr_A_C
5nq2_A_C
4z78_A_C
1t1y_A_C
3dtx_A_C
1zt1_A_P
3rwi_A_C
6bj8_A_C
3vfw_A_C
3l3i_A_C
4g43_A_C
3o3a_A_C
6o4y_A_C
3tjh_A_B
5gsb_A_C
1kjm_A_P
3kyn_A_P
5ts1_A_P
5enw_A_C
1e27_A_C
1i7u_A_C
3utq_A_C
6mt4_A_C
5vwd_A_C
5wsh_A_C
4hv8_A_E
3czf_A_C
1eez_A_C
2hjk_A_C
2fyy_A_C
4i4w_A_C
3ln4_A_C
1lk2_A_P
6v2o_A_C
3wlb_A_C
2bvp_A_C
5w67_A_C
4e0r_A_C
3ws3_A_E
3qfd_A_C
1mhc_A_C
5xs3_A_C
5fa3_A_C
1t21_A_C
2hn7_A_C
4l8d_A_E
6d2b_A_C
4u1s_A_C
5c08_A_C
1i1y_A_C
3vri_A_C
3tbt_A_C
6mt5_A_C
3p4n_A_F
3mrk_A_P
6ewo_A_C
3p4m_A_F
6d2t_A_C
3gsw_A_P
3vfr_A_C
5swq_A_C
6m24_A_C
3i6g_A_C
1a1m_A_C
4zuv_A_C
5wmn_A_E
5c0i_A_C
6j2f_A_C
1t1z_A_C
4o2f_A_C
3bze_A_P
4jqv_A_B
5wmo_A_C
3mrf_A_P
3lkq_A_C
4u6x_A_P
4wdi_A_C
2h6p_A_C
3p4o_A_F
5d9s_A_C
1s9y_A_C
3tbv_A_I
5weu_A_P
6gh1_C_Q
6o53_A_C
3gsu_A_P
5m01_A_P
5ymw_A_C
3bev_A_C
5fa4_A_C
4no3_A_C
3pwl_A_C
3bh8_A_C
3gsq_A_P
3fqn_A_C
1tvh_A_C
3mrh_A_P
1ld9_A_C
3v5k_A_C
2bst_A_C
3mri_A_P
4huv_A_C
3ln5_A_C
6jq3_A_P
6o51_A_C
3pwj_A_C
3rwg_A_C
5gsd_A_C
3vfs_A_C
3pwu_A_C
1jpf_A_C
3qfj_A_C
3mr9_A_P
6ptb_A_C
3fom_A_P
3cc5_A_C
2x4n_A_C
5f1n_A_C
3mrj_A_P
5meq_A_C
3fqx_A_C
6j2i_A_C
1s7u_A_C
2x4t_D_F
6trn_A_C
1osz_A_C
1hsa_A_C
3mrd_A_P
6o9b_A_C
5t7g_A_P
1agb_A_C
1wbx_A_C
3lkn_A_C
5vgd_A_C
4k7f_A_C
6jp3_A_C
1s8d_A_C
5mer_A_C
3e6h_A_P
2xfx_A_C
1g7q_A_P
3skm_A_C
2zok_A_I
5f7d_A_C
6j2e_A_C
5n1y_A_C
2hjl_A_C
5trz_A_P
1qew_A_C
5eu6_A_C
3qul_A_C
1agf_A_C
2git_A_C
5mfi_A_C
5mff_A_E
5mfh_A_E
6sa8_A_B
6s9l_A_C
5mfj_A_C
2qab_A_C
2jf9_A_P
5dkg_A_C
5dwg_A_C
4mg7_A_C
5kro_A_C
4zi1_A_B
1x7r_A_B
5tn5_A_C
1zaf_A_C
5wgd_A_E
5tm8_A_C
1u3s_A_C
1xb7_A_P
2j7y_A_B
6cbz_A_C
5e1c_A_C
5gs4_A_B
2gpo_A_C
5dxe_A_C
5tmu_A_C
4j26_A_I
4pxm_A_C
2bj4_A_C
3d24_A_B
4j24_A_I
2yjd_A_C
2yja_B_A
2j7x_A_B
3zke_A_B
4ds1_A_B
3brl_A_C
2xqq_A_E
5e0m_A_C
5e0l_A_C
4d07_A_B
4ht6_A_B
6gzj_A_B
6gzl_A_B
3dvp_A_C
4qh7_A_C
1e8n_A_I
5n4d_A_C
5uw7_A_C
5n4b_A_D
5o3u_A_L
5o3w_A_W
5yf4_A_B
1vwb_B_P
1vwp_B_P
1rst_B_P
6qsy_A_P
6qbb_A_P
1kl3_A_E
1hqq_A_E
1hxl_A_C
1vwj_B_M
5n8b_A_E
1slg_B_M
1sts_B_M
1hxz_A_C
4jo6_A_Y
1hy2_A_E
2g5l_A_X
6qw4_A_P
5n7x_A_D
6pv9_A_B
5o4y_B_D
5o45_A_B
6nnv_A_J
2v8c_A_C
2v8f_A_C
1cf0_A_C
1cjf_A_C
6u3m_C_F
6bij_A_C
3pdo_A_C
3l6f_A_C
6atf_A_C
1t5w_A_C
1klg_A_C
4h26_A_C
1pyw_A_C
4md5_A_C
2seb_A_E
1sjh_A_C
1s9v_A_C
4mcz_A_C
4y19_A_C
4md0_A_C
1jk8_A_C
4i5b_A_C
6cpo_A_C
5nig_A_C
5ksv_A_C
6biz_A_C
5ujt_A_C
4is6_A_C
1uvq_A_C
5jlz_A_E
6cpl_A_C
5ni9_A_C
6biy_A_C
4mdj_A_C
1j8h_A_C
1muj_A_C
4x5w_A_C
6hby_A_C
3c5j_A_C
4h25_A_C
1fv1_A_C
1iak_A_P
6dig_A_C
2nna_A_C
1sje_A_C
6bil_A_C
4md4_A_C
6kvm_A_C
4ov5_A_C
4aen_A_C
6nix_A_C
2ipk_A_C
1aqd_A_C
1r5v_A_E
6bix_A_C
1k2d_A_P
6bir_A_C
2pxy_C_P
1klu_A_C
5ksa_A_J
5l83_B_C
5lxi_D_C
5lxh_A_E
4eoy_A_D
4xc2_A_E
5azg_A_C
6a9x_D_A
6aaf_A_B
6hoi_A_G
3d32_A_C
6hol_A_C
5yip_A_B
3dow_A_B
5u5f_A_D
5f88_A_E
5hyq_A_E
5ir1_A_E
2otw_A_E
6au5_A_E
5ff6_A_E
5id1_A_F
5myx_A_E
5th2_A_E
5icy_A_E
4xxd_A_C
6bae_A_D
5t1k_A_E
6b9y_A_D
1a3r_L_P
6ct7_L_S
6bah_A_D
5u5m_A_D
5t1l_A_E
5ivz_A_E
5id0_A_E
5euk_A_E
5u6a_A_D
5v6m_L_P
2z32_A_B
3zgc_A_C
4ch9_B_D
2flu_X_P
2dyh_A_B
5wfv_A_P
5wg1_A_P
6ttk_A_E
6gy5_A_U
3wn7_A_B
4chb_A_C
6dqu_A_B
6dth_A_B
5kzt_A_C
6dtg_A_B
4r6p_A_B
1toq_A_B
4akc_A_B
1m26_A_B
4akb_A_B
1kuj_A_B
1jac_A_B
3lly_A_B
1jot_A_B
3lm1_A_B
5bn6_E_A
1ku8_A_B
3llz_A_B
6uyv_A_B
4wjp_A_B
6v7s_C_D
6uyt_A_B
6uyr_A_B
5yca_A_C
6uys_A_B
6v7r_C_D
6v7p_C_D
6uyz_A_B
6v7q_C_D
6uyu_A_B
4wjq_A_B
6uyo_A_B
6uyq_A_B
5cil_H_P
4hpo_H_P
5dmg_H_P
5i8c_A_C
5csz_H_D
5ghw_H_P
5wnb_H_B
5x08_H_P
6fy2_H_P
5u3m_H_A
6o24_A_I
4n0y_H_A
5u3o_H_A
5cin_H_P
5iq9_A_C
5u3l_H_P
4tuk_H_I
6db6_H_P
5dd0_H_P
6vln_H_P
6ulf_A_P
6axk_A_E
6db7_H_P
5ea0_H_P
5u3n_H_A
6vbq_H_P
4nrx_H_P
6me1_A_F
6o26_A_C
4ris_H_P
5gir_H_C
6sf6_H_C
4lkx_A_R
5hfc_A_B
4joh_A_D
4k6y_A_C
4q6s_A_C
4nmo_A_C
4jof_A_C
4nmq_A_C
1be9_A_B
5hey_A_B
3jxt_A_D
4nmr_A_C
4g69_A_B
4joj_A_C
5hed_A_B
1tp3_A_B
5k4f_A_C
4nms_A_C
4k75_A_B
4joe_A_C
4jog_A_C
6ov7_A_C
4k78_A_B
4jok_A_C
5heb_A_B
1tp5_A_B
4jor_A_C
5d13_A_E
4k76_A_E
4q6h_A_B
5hfb_A_B
4nmp_A_C
4e35_A_C
4oaj_A_B
6r4w_A_D
6r5c_A_C
6r59_A_E
5a0x_A_C
6r4x_A_D
6r51_B_E
5fc2_B_A
5fby_A_B
2xu7_A_D
5y1u_A_D
4pby_A_C
4pbz_A_B
6bw4_C_B
6s1r_A_B
5wjc_A_B
3cfs_B_E
5vtb_A_B
6bw3_C_B
4r7a_B_A
5xxq_A_D
4pc0_A_C
2yb8_B_A
2xyi_A_B
3sjk_A_B
3sj9_A_B
4uj9_A_B
6i2d_A_D
3cqw_A_C
4rrv_A_B
6emb_A_D
5n1o_A_B
4hpt_E_I
5n7u_A_B
5m75_A_B
4iak_A_S
6eh2_A_B
6eru_A_B
5ok3_A_D
4xw4_A_B
1stc_E_I
5ouc_A_E
2jam_A_D
4wih_A_B
4xw6_A_B
5li1_A_B
5ous_A_B
6emd_A_D
6buu_A_F
6i2a_A_D
5eyk_A_D
5n32_A_B
5n3f_A_B
6mm5_E_C
6i2b_A_D
4dc2_A_Z
3kmg_A_B
6kxx_A_B
3et1_A_P
2p54_A_B
3fur_A_H
5z6s_A_C
3g9e_A_B
6fzf_A_C
6onj_A_C
1k7l_A_B
6d94_A_B
1zgy_A_B
3cwd_A_C
6ilq_A_B
3g8i_A_Z
4f9m_A_C
4hee_X_Y
2hfp_A_B
2npa_A_B
3sp6_A_B
3et3_A_P
3qt0_A_C
3t03_A_C
6pdz_B_C
6oni_B_D
3tws_A_E
5bxu_A_B
3tww_A_C
5gp7_A_B
3twu_A_B
3twx_A_C
3twt_A_E
5bxo_A_C
3twv_A_E
3twr_A_E
4z68_A_E
5hkp_A_C
4mvi_A_B
4mvk_A_B
4mvl_A_E
4qae_A_P
5ex3_A_D
3tg5_A_B
5hq8_A_I
4dm6_A_E
3kmz_B_C
6n87_A_C
4z0f_A_C
3srj_A_C
4z0d_A_C
3sri_A_B
4z09_A_C
6j68_A_C
6jjw_A_U
6jjz_A_C
5cq2_A_B
6jjx_A_C
6jjy_A_U
6lyc_A_B
1awr_B_H
3ici_A_C
1awu_A_B
1fgl_A_B
6i42_A_B
5yba_A_B
4irv_A_E
6mhf_A_C
1y3a_A_E
6g05_A_P
6g07_A_P
5aph_A_C
5apk_A_D
5g45_A_C
4wlb_A_D
6ivx_A_B
4wpf_A_B
5x8q_A_B
3l0l_A_C
2zgh_A_B
1vgc_B_A
6di8_B_A
3tjv_A_B
2zgj_A_B
2jet_B_A
3d9o_B_Z
3d9k_B_Z
3d9n_A_Y
3d9m_B_Z
3d9l_A_Y
3d9p_B_Z
3i5r_A_B
4hvw_A_B
5ob2_A_B
1fyn_A_B
1lck_A_B
4eik_A_B
4znx_A_E
4rtz_A_B
4u1p_A_B
5ob0_A_B
5oav_A_B
4qt7_A_B
4i32_A_C
2a4g_A_B
3rc4_A_B
2qv1_A_C
4a1v_B_D
1dxp_A_C
2obq_A_B
3m5o_A_C
4a1x_A_C
2xcf_A_C
3kee_A_E
3rc5_A_B
4ktc_A_B
6ekl_A_B
4ext_C_B
6k07_A_B
3abd_A_X
5xpu_A_B
6bc8_A_B
5o8k_A_B
4xhv_A_B
6jue_L_A
3lny_A_B
6qnn_A_B
5m61_A_E
1utc_A_P
5m5s_A_E
5m5v_A_E
5m5u_A_E
5m5r_A_C
4efh_A_B
5ypu_A_B
2a40_A_C
3u9d_A_B
2a3z_A_C
3mn7_A_S
2ff6_A_H
3u8x_A_B
3u9z_A_C
1sqk_A_B
6jcu_A_B
4b1w_B_M
3sjh_A_B
6jbk_A_B
1lew_A_B
2y8o_A_B
4h3q_A_B
2f49_A_C
2b9j_A_C
4h3b_A_B
4izy_A_B
5o90_A_B
5v62_A_I
3ptg_A_J
2okr_A_C
2b9i_A_C
4loq_A_M
5v61_A_I
4ux9_A_F
3p4k_A_P
2b9h_A_C
4h3p_A_B
4fmq_A_B
2xrw_A_B
2y9q_A_B
1lez_A_B
4loo_A_B
2gph_A_B
3o71_A_B
2fys_B_D
3tei_A_B
2o60_A_B
1iq5_A_B
1m46_A_B
1m45_A_B
5dow_A_B
3gof_A_C
5jqa_A_B
3bya_A_B
1iwq_A_B
3ewt_A_E
6y4o_A_B
2o5g_A_B
6u39_A_B
3dvk_A_B
4ehq_A_G
6y4p_A_B
2f3y_A_B
6mue_A_B
5dbr_A_C
1mxe_A_E
6dad_A_C
4m1l_A_B
1yr5_A_B
2ggm_A_C
4upu_A_B
2f3z_A_B
1zuz_A_B
6daf_A_C
3sui_A_B
1qtx_A_B
6hcs_A_B
4q5u_A_C
1cdm_A_B
6n5w_C_A
4djc_A_B
1vrk_A_B
3dve_A_B
1qs7_A_B
2hqw_A_B
2w73_A_K
6sz5_A_B
3qrx_A_B
3gp2_A_B
2fot_A_C
5nin_B_D
3tz1_A_B
2r28_A_C
2vay_A_B
1l7z_A_B
2obh_A_C
1niw_A_B
3bxl_A_B
1cdl_A_E
1wrz_A_B
2y4v_A_B
4g1z_A_B
5xpo_A_C
1rkg_A_C
3wt7_A_C
2zfx_A_C
3w0i_A_C
3o1d_A_B
3a2h_A_B
4q0a_C_D
5gid_A_C
3u7d_A_B
4hdq_A_C
6b5r_H_A
6b5p_H_A
1svz_A_C
2brr_H_P
6b5s_H_A
2ych_A_B
3ryb_A_B
3drk_A_B
3drg_A_B
3drj_A_B
3drf_A_B
4cu4_A_B
3uvk_A_B
3p4f_A_B
4erz_A_E
4es0_A_C
4erq_A_D
4cy5_A_C
4o45_A_B
3uvm_A_B
4y7r_A_B
3emh_A_B
4cy2_A_C
3eg6_A_C
5sxm_A_C
3uvo_A_B
4cy1_A_D
2xl2_A_C
3uvn_A_B
3uvl_A_B
4cy3_A_D
4esg_A_D
4ewr_A_C
4ery_A_D
2h9m_A_B
5df6_A_B
2ci9_A_L
6pxc_A_U
1aya_A_P
3tl0_A_B
4qsy_A_B
6roy_A_D
4k45_A_B
6g85_A_C
5xw5_A_C
6g86_A_D
6g84_A_D
2xum_A_S
3p3n_A_B
6hc8_A_E
6hl5_A_S
3d8c_A_B
6h9j_A_D
4b7k_A_B
2y0i_A_S
6hkp_A_S
5jwp_A_B
1h2k_A_S
6ha6_A_D
6hl6_A_S
4jaa_A_S
1h2l_A_S
6ruj_A_B
4b7e_A_B
2g56_A_C
2g54_A_C
2g47_A_C
3e4z_A_C
2g49_A_C
1hc9_A_C
4obk_A_C
4eq0_A_P
4eqj_A_G
1kj7_A_P
2aoj_A_C
4ep2_A_B
4obj_A_C
2aof_A_C
4ep3_A_E
2fnt_A_P
1kjh_A_P
4obh_A_E
5jqy_A_B
6q9i_A_B
5jzu_A_B
6rk9_A_C
5jz8_A_B
5q0s_A_B
5q1b_A_B
5q17_A_B
3okh_A_B
3omk_A_B
5q12_A_B
5q0x_A_B
5q13_A_B
4qe6_A_B
5q16_A_B
5y1j_A_U
5yxl_A_B
5y49_A_D
5q1g_A_B
5y44_A_B
5q1d_A_B
1z3l_E_S
1rbd_A_S
1ssb_A_B
1fev_B_A
1j7z_B_A
4o36_B_A
1d5d_B_A
1d5e_B_A
1d5h_B_A
1rbi_A_S
4okf_B_A
1ssc_A_B
4srn_A_B
1rbh_A_S
1ssa_A_B
1rbc_A_S
4o37_B_A
1rbe_A_S
4k7l_B_A
1rbf_A_S
3srn_A_B
1rbg_A_S
4xib_A_C
3fwv_A_C
3esk_A_B
4j2c_A_B
5ua5_A_B
4x1h_A_C
3woo_A_C
3wor_A_C
5yvx_A_C
3kui_A_B
6h7b_A_B
3pkn_A_B
2x04_B_D
3ktr_A_B
3pth_A_B
3ktp_A_B
3kuj_A_B
3kus_A_C
3kut_A_C
1skg_A_B
1tjk_A_I
1tg4_A_I
1jq8_A_P
3fg5_A_C
2gns_A_P
4aa2_A_P
6qs1_A_E
1jw6_A_B
6qtu_A_B
5hax_A_B
5ypo_B_C
3wp0_A_B
3tvt_A_B
5ypr_A_B
4pz6_A_Q
3io8_A_B
4a1u_A_B
5vx3_A_B
3fdl_A_B
2yq6_A_B
2yj1_A_B
6dco_A_C
4yk9_A_B
5vax_A_E
4z9v_A_C
4z9v_B_E
3r85_A_E
4yj4_A_B
4a1w_A_P
5fmk_A_B
4bpk_A_C
5c3g_A_B
4qvf_A_B
5fmj_A_B
5b1z_A_C
3fdm_A_D
2yq7_A_B
5agx_A_D
4cim_B_Q
6dcn_A_D
5vay_A_E
2p1l_A_B
5vau_A_E
6pau_A_C
6qrm_A_C
1iid_A_O
6sk8_A_C
6sjz_A_F
5o9u_A_C
5o9t_A_C
5o9v_A_C
6sk2_A_D
4zny_A_B
3obu_A_B
4eje_A_C
3p9h_A_B
3obx_A_B
3obq_A_B
5v2q_A_B
5v2p_A_B
1t3l_A_B
4zw2_A_B
4k0u_A_B
5nxq_A_D
4k38_A_D
4k39_A_C
5zjz_A_B
2v8w_A_B
5zk9_A_B
5zml_A_B
3m94_A_C
5zjy_A_B
3hxg_A_C
2jgb_A_B
5ei3_A_B
3am7_A_B
2w97_A_E
5zk5_A_B
5zk7_A_D
1ejh_A_E
3u7x_A_C
3hxi_A_C
1wkw_A_B
4aza_A_B
6nkp_A_C
5jr2_A_E
2qbx_A_P
2bba_A_P
4w50_A_E
6nk0_A_C
6njz_A_C
6nk2_A_C
6rw2_A_B
5htb_A_C
5jeo_A_B
5jel_A_B
5jek_A_C
5xup_A_C
5wir_B_D
3bqo_A_B
3jql_A_B
3jq5_A_B
3gci_A_P
3jti_A_B
3tzd_A_T
3qo2_A_P
3svm_A_P
3dm1_A_B
4x3k_A_C
4x3s_A_D
3r93_A_E
1fm6_A_B
1xiu_A_E
3fug_A_B
3fs1_A_B
1pzl_A_B
4j9d_A_B
1abo_A_C
4j9i_A_B
4j9h_A_G
3eg1_A_C
4cc3_A_B
4cc2_A_B
4gqb_A_C
1p7v_A_B
5fos_A_C
4mzf_B_A
4mzg_B_A
5zys_A_B
5n7f_A_C
2i04_A_C
5cfa_A_C
1r17_A_C
5ly1_C_E
6h8p_A_C
2oq6_A_C
6hgt_A_E
5ly2_A_E
4lxl_A_D
4hon_A_F
2p5b_A_I
3u4s_A_C
3up3_A_P
3gyt_A_B
6mwz_A_M
1uhd_A_B
1aw8_B_A
3plx_B_A
1vc3_B_A
4aon_E_D
6p1y_B_A
2eeo_B_A
2z3n_A_C
6tsc_A_B
6qzy_A_B
6r00_A_B
5xcs_A_C
6o29_A_C
6d0x_A_C
5yy4_A_B
5xcv_A_C
5npj_A_D
1q1j_I_Q
4xvj_H_A
6e4y_H_P
4qy8_A_Q
5aum_H_C
6mv5_H_P
4yo0_A_E
6i2g_A_B
5a2i_H_P
5djx_A_C
5u66_A_B
5j3t_A_C
5j3q_A_B
5jp4_A_B
2x0x_C_F
1i3z_A_B
1m27_A_B
3rf3_A_C
1ydi_A_B
1u6h_A_B
1syq_A_B
1zw2_A_B
1t01_A_B
1zvz_A_B
4dj9_A_B
6ae8_A_C
4m6b_A_C
4cay_A_C
4lka_A_B
6fkp_A_E
6oie_A_D
5t8r_A_G
5b77_A_B
4llb_A_C
5b78_A_B
4lk9_A_B
5szc_A_H
5onp_A_B
6i7q_V_H
6bvb_V_H
1lqb_C_D
4ajy_V_H
6gmr_V_H
1lm8_V_H
4r8m_A_C
2od2_A_B
5ol0_A_C
4c78_A_C
1q1a_A_B
3glr_A_B
2qqf_A_B
4y6o_A_C
5bwo_A_B
4bvg_A_B
5bwn_A_B
6spx_A_B
6q38_A_C
6q4q_A_C
4ib5_A_D
4wx4_A_C
4pis_A_B
4pid_A_B
5zqg_A_C
1uk4_A_G
4zuh_A_C
2q6g_A_C
6ew9_A_P
2er6_E_I
1gvu_A_I
4lp9_A_I
3er5_E_I
5apr_E_I
1er8_E_I
3url_A_B
2er7_E_I
3uri_A_B
1oex_A_B
5yay_A_B
5ybe_A_B
5vwv_A_B
5vwz_A_B
5vx0_A_B
5vwx_A_B
5e2b_A_D
6kds_A_E
5e1m_A_D
5cve_A_D
6kdr_A_D
5e1d_A_D
5e1o_A_D
5e1b_A_D
3o37_A_E
4qc1_A_D
4d0t_C_P
6s22_A_F
2ffu_A_P
6pxu_A_C
6s24_A_F
2hdx_A_G
4w8p_A_B
5fzt_A_B
6cit_C_D
5uwi_C_D
5uww_C_D
5uws_C_D
5uwq_C_D
6x2y_C_D
6x2p_C_D
5dif_C_D
5dhf_C_D
5uwt_C_D
6x2s_C_D
5uwr_C_D
5uwj_C_D
6x2r_C_D
5di9_C_D
6x2x_C_D
6a3a_C_D
6x2u_C_D
6a3c_C_D
5uwh_C_D
5uwu_C_D
5xoj_C_F
5uwo_C_D
4yk6_A_B
5b6g_A_B
3qhe_A_B
4yjl_A_G
4yje_A_B
3nmx_A_D
5iz6_A_B
5iza_A_B
5z8h_A_B
6p8b_C_L
1lb5_A_B
6a33_A_I
1lb6_A_B
6myd_A_B
4d2m_A_B
3o7a_A_B
1d0j_A_G
1d00_A_I
1qsc_A_D
1d0a_A_G
1ca9_A_G
4ghu_A_B
1czy_A_D
3zhf_A_B
2ymt_A_B
1om9_A_P
1p4u_A_B
3c00_B_A
3bzv_B_A
3bzz_B_A
3bzx_B_A
2vt1_B_A
5fpx_A_E
4fvl_A_C
5uwm_A_C
5h0u_A_B
3ayu_A_B
4jij_A_P
6hv2_A_B
2xze_B_R
3swc_A_P
5jhn_A_F
3hna_A_P
5jj0_A_F
2w5z_A_C
4i51_A_C
5e2q_A_B
3t6b_A_C
5e33_A_B
5e3a_A_B
3hqu_A_S
5l9v_A_C
6f0w_A_S
5l9b_A_C
3hqr_A_S
4laj_J_K
1yym_G_M
2i5y_G_M
2i60_G_M
6jwj_A_C
6ej9_A_B
6eje_A_B
6ej8_A_B
6ejc_A_B
6eja_A_B
6ej7_A_B
2xpo_A_B
2xpp_A_B
2xpn_A_B
1m1d_A_B
1q2d_A_B
1pu9_A_B
1q2c_A_B
1pua_A_B
1qsn_A_B
5yv5_A_B
6mbk_A_Y
6wk1_A_Y
6ict_A_E
6icv_A_C
6v62_A_Y
6ox3_A_Y
6ox1_A_Y
6v63_A_Y
1yjm_A_E
2w3o_A_C
4jl0_A_C
4am9_A_B
2vj0_A_P
1ky6_A_P
3hs8_A_P
1ky7_A_P
3l81_A_B
4uwx_A_C
2f31_A_B
6ocp_E_P
2hd4_A_B
1pfg_A_B
2pq2_A_B
1pj8_A_I
3ptl_A_B
1p7w_A_B
2duj_A_P
2hpz_A_B
1bjr_E_I
3zvy_B_D
5vab_A_F
6iiw_A_B
5j19_A_D
4e9c_A_B
4lkm_A_B
3p35_A_D
4e67_A_B
4o56_A_B
3p37_A_E
5dmv_C_D
3bzi_A_E
5iyx_A_B
5ixq_A_B
2h1c_A_B
4b4s_A_B
4jiz_A_B
5b5v_A_E
4j1v_A_E
3plu_A_C
4pyu_A_C
6gtv_A_B
5jqi_H_G
4xoe_A_B
6q0m_A_C
3sfj_A_B
4e3b_A_C
1mfl_A_B
5wou_A_V
4nnl_A_C
1mfg_A_B
3diw_A_C
6q0n_A_C
6q0u_A_C
4nnm_A_C
4cyd_B_F
6v55_A_Q
2zpy_A_B
3x23_A_B
1j19_A_B
4zrk_A_E
3wa0_A_G
2d10_A_E
5t0q_A_B
4yz6_A_B
4rs9_A_B
4ywc_A_C
4qx7_A_E
4qwn_A_E
3kv4_A_B
4qx8_A_E
5izu_A_B
6exj_A_B
1q3p_A_C
3qjm_A_C
5ovv_A_B
5ovp_A_B
5w89_A_B
5w8f_A_B
2pqk_A_B
2nl9_A_B
4hw4_A_C
5c6h_A_B
5vx2_A_B
4bpj_A_D
3d7v_A_B
5uum_A_C
6fbx_A_B
3kj1_A_B
3kj0_A_B
3mk8_A_B
4g35_A_B
6mbd_A_C
6qfi_A_B
3kz0_A_C
5c3f_A_B
6mbe_A_B
4bpi_A_B
3io9_A_B
3kj2_A_B
5kvm_A_B
6jlh_A_B
3tzy_A_D
3tzx_A_D
4z2p_A_P
4z2o_A_P
4z2v_A_P
4hsu_A_B
3m55_A_B
3m57_A_B
2f69_A_B
5eg2_A_B
4j8o_A_B
1o9s_A_K
3os5_A_B
3cbm_A_B
1xqh_A_B
4j83_A_B
4j7f_A_B
2nm1_A_B
4kbb_A_C
6qns_A_S
6g5k_A_C
6f0g_A_C
2z34_A_C
6f0h_C_D
4qjr_A_B
5unj_A_C
4ple_A_B
4rwv_A_B
3f7d_A_B
1ymt_A_B
1yp0_A_B
3plz_A_C
1zdu_A_P
1yuc_A_C
4oni_A_C
1zh7_A_C
3wgx_A_C
5crw_A_B
5w7y_A_D
3o2b_A_B
6gos_1_A
6grg_1_A
6grh_1_A
2hpl_A_B
5uup_A_B
2vm6_A_B
3i1h_A_B
6mbc_A_B
5uuk_A_B
6e3j_A_B
3mqp_A_B
6e3i_A_B
5whh_A_B
2vog_A_B
2voi_A_B
5uul_A_B
6mbb_A_B
2voh_A_B
4j84_A_C
4j77_A_C
4j8b_A_B
4j73_A_B
4j86_A_C
4j79_A_B
2ynn_A_P
4j82_A_C
4j78_A_B
4j81_A_D
4tzo_A_B
4tzm_A_C
2vif_A_P
5ema_A_B
5elq_A_P
4z8j_A_B
1rzx_A_B
5i7z_A_B
4uu5_A_B
5em9_A_B
5emb_A_B
5oak_A_B
4bd6_A_C
4zih_A_B
4zig_A_B
4zii_A_C
5vkl_A_B
3t7g_A_C
1t15_A_B
1t29_A_B
1y98_A_B
2nnu_A_B
6o3w_A_C
6r7w_A_B
2dey_X_A
2dew_X_A
2dex_X_A
4mi8_A_C
3dvu_A_C
3bl2_A_C
2h4f_A_D
4buz_A_P
2h2h_A_B
2h4j_A_D
2h2f_A_B
2h2d_A_B
3d4b_A_D
3jr3_A_D
2h59_A_D
3zg6_A_F
4zox_A_B
3bfw_A_B
5iqm_G_F
5iqo_A_B
5iqn_A_B
3bfq_G_F
4lnp_A_B
2o9v_A_B
1w70_A_C
4ln2_A_B
6acl_A_B
6rxr_A_E
6acp_A_B
6rxm_A_G
1ma3_A_B
6rxp_A_C
6aco_A_B
4utv_A_C
6ace_A_B
3rig_A_C
4twj_A_B
4f56_A_C
6rxk_A_B
6ar2_A_C
1oai_A_B
2oq1_A_B
5eel_A_M
5u1q_A_L
5eeq_A_L
5u06_A_L
3pqz_A_L
1ckb_A_B
6atv_A_M
1cka_A_B
1b07_A_C
5l23_A_B
5ih2_A_M
5t1i_A_C
3h5r_A_E
6om4_A_C
4fys_A_C
4ou3_A_B
4naq_A_B
4hom_A_B
6ryf_A_G
6rqx_A_B
1wbp_A_B
1t08_A_C
1qz7_A_B
1jpw_A_D
4jmh_A_B
1r1s_A_B
2qbw_A_B
1r1q_A_C
4jmg_A_B
4gvc_A_B
4gvd_A_D
4nxq_A_D
4nxr_A_B
6b3x_A_B
3rbq_A_G
6h6a_D_E
5l7k_A_B
2cvy_A_B
3hql_A_C
6i41_A_B
6f8g_A_E
6f8f_D_G
3hqh_A_M
3ivq_A_C
3hqm_A_C
3ivv_A_D
4o1v_A_B
3ivb_A_M
3hsv_A_M
4lx2_A_B
5jcy_A_B
4kp3_A_E
2pv1_A_B
2pv2_A_E
2qki_A_G
6hm4_A_B
6hm3_A_B
4bu0_A_B
4bu1_B_D
3cbl_A_B
3bu3_A_B
3fy2_A_B
3bu5_A_B
3bu6_A_B
2g1t_A_E
1k3a_A_B
1ir3_A_B
3fxx_A_B
4lzf_A_B
4ld3_A_B
3uxg_A_B
3v30_A_B
3v2o_A_B
3v31_A_B
4qqi_A_X
3v2x_A_B
4h2t_A_C
4zqw_B_A
3rdv_A_E
2hqh_A_E
6mpz_A_M
5z8l_A_P
6j8y_C_D
3f9y_A_E
1zkk_A_E
3f9x_A_F
2bqz_A_B
3mqs_C_D
4ysi_A_B
1yy6_A_B
2fop_A_B
4kg9_A_B
2xxn_A_B
2foj_A_B
5glf_A_B
5epp_A_B
5b6c_A_B
3tiw_A_C
5jja_A_C
6vro_A_B
4z88_A_M
4z8a_A_B
5xhz_A_C
1e54_A_B
1tk2_A_B
5ox2_A_P
2iuh_A_B
5gji_A_B
2iui_A_C
3nfl_A_E
5eyz_A_E
6hks_A_G
5ez0_A_E
3nfk_A_C
3emw_A_B
6key_A_B
3f2o_A_C
2ihs_A_C
1yk0_A_E
1jdp_A_H
6hom_A_B
5lsw_A_B
4m7c_A_C
3bua_A_E
4rqi_A_E
3bu8_A_C
4mls_A_B
3avr_A_B
6f6d_A_B
5oy3_A_B
6hip_A_C
2peh_A_C
5lso_A_C
3qis_A_B
1jg3_A_C
1tzs_A_P
1avf_A_P
1smr_A_B
3h1z_A_P
2g30_A_P
6gmg_A_C
5fg8_A_B
5h9b_A_B
5hu3_A_B
3iec_A_E
5vmo_A_B
6j19_A_B
6rrc_C_B
4apo_A_E
3zzz_A_C
3zzy_A_C
3q6s_A_F
3mo8_A_B
2x4x_E_F
2x4y_O_P
2x4w_A_B
4x8n_A_B
5f6l_B_J
4x8p_A_B
3njn_A_B
3njf_A_B
4ore_X_A
5dbe_X_A
3tbh_A_B
5xoq_A_C
1qgr_A_B
5lmg_A_D
5lmf_A_D
4odk_A_B
4odp_A_B
4odn_A_B
4odm_B_G
4odq_A_B
5dai_A_B
1isq_A_B
4m92_A_B
4geq_A_F
4wzx_A_E
5tzq_A_D
5tzp_A_B
2ifr_A_B
6ifc_A_B
5nqv_A_E
5ja5_A_B
1ntv_A_B
1oqn_A_C
6ovf_A_C
5txe_A_C
2byp_A_F
2c9t_A_K
2uz6_A_K
5co5_G_F
4jdi_A_B
4xbu_A_B
4jdk_A_B
6wlx_A_B
6wly_A_B
2q0n_A_B
4jdj_A_B
4fii_A_B
4jdh_A_B
3maz_A_B
6lqe_A_P
2dym_A_B
1ttw_A_B
6tyx_A_C
6tyu_A_B
6tyz_A_B
6tyw_A_B
6tyt_A_B
6tyv_A_B
6i5n_A_K
5wzz_A_G
4i7d_A_B
2a25_A_B
4x3g_A_C
2vzg_B_A
2vzi_B_A
2vzd_A_C
6jx3_B_A
5afw_A_B
4o42_A_B
4a2a_A_C
4uqy_A_B
4uqz_A_B
3rm1_A_B
5d7f_A_P
4hrg_A_C
1qls_A_D
4eto_A_P
2qn6_A_C
1htm_B_A
4txr_A_B
4txq_A_C
4u7e_B_A
1ybo_A_C
1oby_A_P
1w9o_A_T
4z33_A_C
6ak2_A_D
2znl_A_B
3lge_A_E
3ddb_A_B
4zjx_A_B
3boo_A_B
3dda_A_B
1sdz_A_B
1se0_A_B
6njg_C_B
5mn9_A_C
2d3g_A_P
4m5t_A_B
4m5s_A_B
5twa_A_D
3zrj_A_X
4niq_A_C
5fvk_A_C
4a5x_A_C
4gba_A_F
3tdu_A_F
3tdz_A_E
6wnx_A_C
6m93_A_C
6m90_A_C
6m91_A_C
4yl6_A_B
3jrv_A_C
6rr0_A_H
6qsz_A_B
6nsv_A_C
6efk_A_D
3q49_B_C
3q47_B_C
5zoo_G_A
2p0w_A_P
6vo5_A_C
2co2_A_B
3soq_A_Z
3sov_A_Z
3gme_A_D
4gxl_A_B
2qiy_A_C
4dow_A_C
6fbk_A_P
2jby_A_B
3agy_A_C
3agy_B_F
6r8i_A_B
4wsf_A_B
4hh6_A_Z
6n3e_A_B
6nsx_A_B
1dkd_A_E
5yi7_A_B
3mk4_A_B
4yzh_A_B
4cco_A_C
4bxf_A_C
4y3o_A_C
4ccn_A_C
3l6x_A_B
3al3_A_B
5yyf_A_B
6mil_A_B
5yd8_Y_V
2zvv_A_X
5e0u_A_D
2zvl_A_U
5e0v_A_C
6o09_C_I
2zvm_A_U
1u7b_A_B
6k3a_A_B
3awr_A_C
2v1t_A_C
3ax2_A_B
3ax5_A_B
5bpu_A_H
6q36_A_C
6sen_A_L
3c5t_A_B
3c59_A_B
3r7g_A_B
2yle_A_B
4xtr_A_G
4bjt_C_F
3owt_A_C
2qos_C_A
3at0_A_B
4f1z_A_Q
4f27_A_Q
3lcn_A_C
6gvl_A_B
2wok_A_B
5y18_A_B
4od7_A_D
4tky_A_E
6b9h_A_B
2r7g_A_B
1n4m_A_C
5eiv_B_E
2vr3_A_C
1lvb_A_C
1lvm_A_C
3mmg_A_C
5v1y_A_E
6oi4_A_E
5v1z_A_E
5gtu_A_B
5xod_A_B
2wv4_B_D
5njx_A_B
1jk4_A_B
5tu6_A_B
2pie_A_F
2qme_A_I
5xco_A_B
4l1u_B_G
5nl1_A_H
6jg9_A_C
5zvw_A_B
5hda_A_B
3ap2_A_S
5wri_A_D
2c5k_T_P
5vb9_A_C
5hi3_A_I
6maj_A_B
5gk9_A_B
5we0_A_C
6ezi_A_B
2ykt_A_B
1jmt_A_B
4rwg_A_D
5az8_A_B
5ii0_A_D
6pfo_A_C
3c4m_A_C
3ehu_A_C
3h3g_A_B
1ytv_A_M
4wvh_A_C
3rof_A_B
3d9u_A_B
1jd5_A_B
1q4q_E_S
6nid_A_E
1f8a_B_C
3w1b_A_B
4htp_A_C
6do5_A_C
6do3_A_C
6do4_A_C
4n78_F_P
1j2x_A_B
6cdg_A_B
6wzx_A_C
4xal_A_B
4bq6_F_E
6hlb_A_B
6hzd_A_B
6eqx_A_D
4x3h_A_B
4x3i_A_B
2v89_A_E
2v85_A_D
2v88_A_D
2v86_A_E
6t46_A_B
2y65_A_Y
3zqh_A_C
3zqi_A_C
3zqg_A_C
5et0_A_B
5et1_A_C
6eop_A_D
1n12_A_B
4zj7_A_B
3w3w_A_B
1rxz_A_B
5d94_A_B
5cx3_A_E
5dpw_A_B
5gmv_B_D
4n4i_A_B
6dei_A_C
4oyk_A_C
4jif_A_B
1eg4_A_P
3n3x_A_B
2jdl_A_C
5ddz_A_B
3zed_B_E
6drt_A_D
1oqe_E_N
3ech_A_C
5efi_A_C
5fkp_A_C
5mt6_A_B
6pjp_A_B
5n1w_A_D
5n22_A_E
5hh7_A_P
4v1t_A_C
6e5x_A_B
5vap_A_D
6sh9_B_E
6qfk_A_B
5v1t_A_B
3so6_A_Q
6dnq_B_A
2pcu_A_B
4uf1_A_B
6trr_A_B
4x2o_A_C
4x2h_A_C
5fml_B_A
4bl0_D_F
2wo6_B_C
6peu_A_M
6k3f_A_U
5wvo_C_D
6hm5_A_B
4b9w_A_P
4naw_A_D
5mx2_Z_Y
2vkn_A_C
5h7g_A_C
6j0x_A_E
6j0w_A_C
3d2u_A_C
3ds1_A_T
4u0a_A_B
4b4n_A_B
6ay9_A_B
5y5a_A_B
2v3s_A_D
3gze_A_X
4m1z_A_C
5hsz_A_K
4jml_A_E
2ivz_A_E
6b9m_A_D
1mk7_D_A
2qyf_A_E
2w2u_A_C
1yyp_A_B
2hi8_X_P
6s07_A_C
5h5s_A_B
5h5q_A_B
5h5r_A_B
5a53_A_B
6xwv_A_E
3e0m_A_E
5naf_A_E
1emu_A_B
6igk_A_B
6ru7_A_C
6ru8_A_E
2aka_B_L
4dlq_A_B
5eft_B_A
1xoc_A_B
5kgn_A_C
3p72_A_B
5fjx_A_E
5fjz_A_P
1qd6_C_A
5y59_B_C
4dzv_A_B
6s3f_A_B
4z10_A_G
4yfb_C_B
4yfa_C_B
4yfb_D_E
2wh6_A_B
2xpx_A_B
5jp2_A_E
6p8s_A_E
4po6_A_B
2fff_B_A
5mtw_A_E
3kmt_A_G
4qbs_A_P
4b45_A_B
5h7y_A_B
4dxr_A_B
4zoz_A_Y
4rwf_A_B
6l0w_A_B
1ou8_A_C
1twb_A_C
1yfn_A_E
3fp2_A_Q
1evh_A_B
5zz9_A_E
3liy_E_K
4gxb_A_B
4b60_A_C
5v8k_A_B
2b1n_A_B
6brs_A_C
4j8s_A_B
3nk4_A_C
2doh_X_C
5yt0_A_B
4r8t_B_A
2whx_A_C
3u1j_B_A
3viv_A_C
1zuk_A_C
5mgx_F_A
6idx_A_C
1i31_A_P
1l6o_A_D
3r42_A_B
4gyo_A_D
6itu_A_B
2ybf_A_B
3si5_A_X
4au7_A_C
5ly3_A_B
2r9q_C_X
6ya7_A_C
3wmg_A_B
3cdw_A_H
4fdd_A_B
6kmj_A_C
4psi_A_D
2hmh_A_B
4j2j_A_D
5m72_A_B
5wrv_B_A
1uef_A_C
4bqd_A_C
5a29_A_B
2c5i_T_P
5w93_A_D
5vyo_A_F
6i6h_A_B
